…
``` r
# check current tsbox ts wrapping
ts_long(m4_quarterly)
```

    ## Additional [id] column(s): 'id'
    ## [time]: 'date'

    ## # A tibble: 196 × 4
    ##    id    id.1  date       value
    ##    <fct> <chr> <date>     <dbl>
    ##  1 Q10   value 2000-01-01 2329 
    ##  2 Q10   value 2000-04-01 2350.
    ##  3 Q10   value 2000-07-01 2333.
    ##  4 Q10   value 2000-10-01 2382.
    ##  5 Q10   value 2001-01-01 2383.
    ##  6 Q10   value 2001-04-01 2405 
    ##  7 Q10   value 2001-07-01 2411 
    ##  8 Q10   value 2001-10-01 2428.
    ##  9 Q10   value 2002-01-01 2392.
    ## 10 Q10   value 2002-04-01 2418.
    ## # … with 186 more rows
…
``` r
# check to <-> from conversion

# tbl -> ts -> tbl
# as expected due to the time indexing

ts_tbl(ts_ts(q10_quarterly))
```

    ## [time]: 'date'

    ## # A tibble: 59 × 2
    ##    time       value
    ##    <date>     <dbl>
    ##  1 2000-01-01 2329 
    ##  2 2000-04-01 2350.
    ##  3 2000-07-01 2333.
    ##  4 2000-10-01 2382.
    ##  5 2001-01-01 2383.
    ##  6 2001-04-01 2405 
    ##  7 2001-07-01 2411 
    ##  8 2001-10-01 2428.
    ##  9 2002-01-01 2392.
    ## 10 2002-04-01 2418.
    ## # … with 49 more rows

``` r
# tbl -> xts -> tbl
# as expected due to the time indexing

ts_tbl(ts_xts(q10_quarterly))
```

    ## [time]: 'date'

    ## # A tibble: 59 × 2
    ##    time       value
    ##    <date>     <dbl>
    ##  1 2000-01-01 2329 
    ##  2 2000-04-01 2350.
    ##  3 2000-07-01 2333.
    ##  4 2000-10-01 2382.
    ##  5 2001-01-01 2383.
    ##  6 2001-04-01 2405 
    ##  7 2001-07-01 2411 
    ##  8 2001-10-01 2428.
    ##  9 2002-01-01 2392.
    ## 10 2002-04-01 2418.
    ## # … with 49 more rows

``` r
# tbl -> xts -> long -> tbl
# as expected due to the time indexing
ts_tbl(ts_long(ts_xts(q10_quarterly)))
```

    ## [time]: 'date'

    ## # A tibble: 59 × 2
    ##    time       value
    ##    <date>     <dbl>
    ##  1 2000-01-01 2329 
    ##  2 2000-04-01 2350.
    ##  3 2000-07-01 2333.
    ##  4 2000-10-01 2382.
    ##  5 2001-01-01 2383.
    ##  6 2001-04-01 2405 
    ##  7 2001-07-01 2411 
    ##  8 2001-10-01 2428.
    ##  9 2002-01-01 2392.
    ## 10 2002-04-01 2418.
    ## # … with 49 more rows
…
